{
    "api": {
        "results": 15,
        "events": [
            {
                "elapsed": 32,
                "elapsed_plus": null,
                "team_id": 127,
                "teamName": "Flamengo",
                "player_id": 10168,
                "player": "Éverton Ribeiro",
                "assist_id": null,
                "assist": null,
                "type": "Cartão",
                "detail": "Cartão Amarelo",
                "comments": null
            },
            {
                "elapsed": 45,
                "elapsed_plus": null,
                "team_id": 127,
                "teamName": "Flamengo",
                "player_id": 10180,
                "player": "Bruno Henrique",
                "assist_id": null,
                "assist": null,
                "type": "Gol",
                "detail": "Gol Normal",
                "comments": null
            },
            {
                "elapsed": 46,
                "elapsed_plus": null,
                "team_id": 127,
                "teamName": "Flamengo",
                "player_id": 500,
                "player": "Rafinha",
                "assist_id": 70368,
                "assist": "João Lucas",
                "type": "Substituição",
                "detail": "João Lucas",
                "comments": null
            },
            {
                "elapsed": 46,
                "elapsed_plus": null,
                "team_id": 134,
                "teamName": "Atletico Paranaense",
                "player_id": 10119,
                "player": "Márcio Azevedo",
                "assist_id": 1977,
                "assist": "Adriano",
                "type": "Substituição",
                "detail": "Adriano",
                "comments": null
            },
            {
                "elapsed": 46,
                "elapsed_plus": null,
                "team_id": 127,
                "teamName": "Flamengo",
                "player_id": 10163,
                "player": "Renê",
                "assist_id": null,
                "assist": null,
                "type": "Cartão",
                "detail": "Cartão Amarelo",
                "comments": null
            },
            {
                "elapsed": 53,
                "elapsed_plus": null,
                "team_id": 127,
                "teamName": "Flamengo",
                "player_id": 10159,
                "player": "Rhodolfo",
                "assist_id": 10165,
                "assist": "Thuler",
                "type": "Substituição",
                "detail": "Thuler",
                "comments": null
            },
            {
                "elapsed": 54,
                "elapsed_plus": null,
                "team_id": 127,
                "teamName": "Flamengo",
                "player_id": 10165,
                "player": "Thuler",
                "assist_id": null,
                "assist": null,
                "type": "Cartão",
                "detail": "Cartão Amarelo",
                "comments": null
            },
            {
                "elapsed": 59,
                "elapsed_plus": null,
                "team_id": 127,
                "teamName": "Flamengo",
                "player_id": 10180,
                "player": "Bruno Henrique",
                "assist_id": null,
                "assist": null,
                "type": "Cartão",
                "detail": "Cartão Amarelo",
                "comments": null
            },
            {
                "elapsed": 63,
                "elapsed_plus": null,
                "team_id": 134,
                "teamName": "Atletico Paranaense",
                "player_id": 10134,
                "player": "L. González",
                "assist_id": 10150,
                "assist": "M. Ruben",
                "type": "Substituição",
                "detail": "M. Ruben",
                "comments": null
            },
            {
                "elapsed": 64,
                "elapsed_plus": null,
                "team_id": 127,
                "teamName": "Flamengo",
                "player_id": 10179,
                "player": "Lucas Silva",
                "assist_id": 2511,
                "assist": "R. Piris Da Motta",
                "type": "Substituição",
                "detail": "R. Piris Da Motta",
                "comments": null
            },
            {
                "elapsed": 66,
                "elapsed_plus": null,
                "team_id": 134,
                "teamName": "Atletico Paranaense",
                "player_id": 10129,
                "player": "Leo Cittadini",
                "assist_id": null,
                "assist": null,
                "type": "Cartão",
                "detail": "Cartão Amarelo",
                "comments": null
            },
            {
                "elapsed": 73,
                "elapsed_plus": null,
                "team_id": 134,
                "teamName": "Atletico Paranaense",
                "player_id": 10142,
                "player": "Marcelo Cirino",
                "assist_id": 9961,
                "assist": "Everton Felipe",
                "type": "Substituição",
                "detail": "Everton Felipe",
                "comments": null
            },
            {
                "elapsed": 76,
                "elapsed_plus": null,
                "team_id": 134,
                "teamName": "Atletico Paranaense",
                "player_id": 10121,
                "player": "Thiago Heleno",
                "assist_id": null,
                "assist": null,
                "type": "Cartão",
                "detail": "Cartão Amarelo",
                "comments": null
            },
            {
                "elapsed": 90,
                "elapsed_plus": null,
                "team_id": 127,
                "teamName": "Flamengo",
                "player_id": 10177,
                "player": "Vitinho",
                "assist_id": null,
                "assist": null,
                "type": "Cartão",
                "detail": "Cartão Amarelo",
                "comments": null
            },
            {
                "elapsed": 90,
                "elapsed_plus": 1,
                "team_id": 127,
                "teamName": "Flamengo",
                "player_id": 10180,
                "player": "Bruno Henrique",
                "assist_id": 10163,
                "assist": "Renê",
                "type": "Gol",
                "detail": "Gol Normal",
                "comments": null
            }
        ]
    }
}